1,Stasiun Arjasa,"Jl. Supriadi, Jawaan, Patemon, Kec. Pakusari, Kabupaten Jember, Jawa Timur ",0000-00-00 00:00:00,0000-00-00 00:00:00
2,Stasiun Bangsalsari,"Kedung Suko, Bangsalsari, Jember Regency, East Java ",0000-00-00 00:00:00,0000-00-00 00:00:00
3,Stasiun Jember,"Jl. Wijaya Kusuma No.5, Tegal Rejo, Jemberlor, Kec. Patrang, Kabupaten Jember, Jawa Timur ",0000-00-00 00:00:00,0000-00-00 00:00:00
4,Stasiun Jatiroto,"Nyeroan, Kaliboto Lor, Jatiroto, Lumajang Regency, East Java 67355",0000-00-00 00:00:00,0000-00-00 00:00:00
5,Stasiun Kalisat,"Jl. Cokroaminoto, Krajan II, Kalisat, Kabupaten Jember, Jawa Timur 68193",0000-00-00 00:00:00,0000-00-00 00:00:00
6,Stasiun Ledokombo,"Karang Kebun, Sumber Lesung, Ledokombo, Jember Regency, East Java 68196",0000-00-00 00:00:00,0000-00-00 00:00:00
7,Stasiun Mangli,"Tanjung, Mangli, Kaliwates, Jember Regency, East Java 68131",0000-00-00 00:00:00,0000-00-00 00:00:00
8,Stasiun Rambipuji,"Jl. Dharmawangsa, Krajan Lor, Rambigundam, Kec. Rambipuji, Kabupaten Jember, Jawa Timur",0000-00-00 00:00:00,0000-00-00 00:00:00
9,Stasiun Tanggul,"Tekoan, Tanggul Kulon, Tanggul, Jember Regency, East Java",0000-00-00 00:00:00,0000-00-00 00:00:00
10,Jatiroto,"Sumberbaru, Jember Regency East Java",0000-00-00 00:00:00,0000-00-00 00:00:00
11,Garahan,"Krajan, Garahan, Silo, Jember Regency, East Java",0000-00-00 00:00:00,0000-00-00 00:00:00
12,Jelbuk,"Pakel, Sucopangepok, Jelbuk, Jember Regency, East Java",0000-00-00 00:00:00,0000-00-00 00:00:00
13,Jombang,Kecamatan Jombang Jember Regency East Java,0000-00-00 00:00:00,0000-00-00 00:00:00
